[
{
  "directory": "D:/Android_all_projects/abhy_code/ataljal_code/ataljal/app/.cxx/RelWithDebInfo/6i4q3725/x86",
  "command": "C:\\Users\\GCRS\\AppData\\Local\\Android\\Sdk\\ndk\\21.4.7075529\\toolchains\\llvm\\prebuilt\\windows-x86_64\\bin\\clang++.exe --target=i686-none-linux-android21 --gcc-toolchain=C:/Users/GCRS/AppData/Local/Android/Sdk/ndk/21.4.7075529/toolchains/llvm/prebuilt/windows-x86_64 --sysroot=C:/Users/GCRS/AppData/Local/Android/Sdk/ndk/21.4.7075529/toolchains/llvm/prebuilt/windows-x86_64/sysroot  -Dnative_lib_EXPORTS  -g -DANDROID -fdata-sections -ffunction-sections -funwind-tables -fstack-protector-strong -no-canonical-prefixes -mstackrealign -D_FORTIFY_SOURCE=2 -Wformat -Werror=format-security   -O2 -g -DNDEBUG -fPIC   -o CMakeFiles\\native-lib.dir\\src\\main\\cpp\\native-lib.cpp.o -c D:\\Android_all_projects\\abhy_code\\ataljal_code\\ataljal\\app\\src\\main\\cpp\\native-lib.cpp",
  "file": "D:/Android_all_projects/abhy_code/ataljal_code/ataljal/app/src/main/cpp/native-lib.cpp"
}
]