{
  "stringTable": {},
  "buildFiles": [
    "D:\\Android_all_projects\\abhy_code\\ataljal_code\\ataljal\\app\\CMakeLists.txt"
  ],
  "cleanCommandsComponents": [
    [
      "C:\\Users\\GCRS\\AppData\\Local\\Android\\Sdk\\cmake\\3.10.2.4988404\\bin\\ninja.exe",
      "-C",
      "D:\\Android_all_projects\\abhy_code\\ataljal_code\\ataljal\\app\\.cxx\\RelWithDebInfo\\3ek4l5dl\\x86",
      "clean"
    ]
  ],
  "buildTargetsCommandComponents": [
    "C:\\Users\\GCRS\\AppData\\Local\\Android\\Sdk\\cmake\\3.10.2.4988404\\bin\\ninja.exe",
    "-C",
    "D:\\Android_all_projects\\abhy_code\\ataljal_code\\ataljal\\app\\.cxx\\RelWithDebInfo\\3ek4l5dl\\x86",
    "{LIST_OF_TARGETS_TO_BUILD}"
  ],
  "libraries": {
    "native-lib-RelWithDebInfo-x86": {
      "buildCommandComponents": [
        "C:\\Users\\GCRS\\AppData\\Local\\Android\\Sdk\\cmake\\3.10.2.4988404\\bin\\ninja.exe",
        "-C",
        "D:\\Android_all_projects\\abhy_code\\ataljal_code\\ataljal\\app\\.cxx\\RelWithDebInfo\\3ek4l5dl\\x86",
        "native-lib"
      ],
      "buildType": "release",
      "abi": "x86",
      "artifactName": "native-lib",
      "output": "D:\\Android_all_projects\\abhy_code\\ataljal_code\\ataljal\\app\\build\\intermediates\\cxx\\RelWithDebInfo\\3ek4l5dl\\obj\\x86\\libnative-lib.so",
      "runtimeFiles": []
    }
  },
  "toolchains": {},
  "cFileExtensions": [],
  "cppFileExtensions": [
    "cpp"
  ]
}